%YAML 1.1
%TAG !u! tag:unity3d.com,2011:
--- !u!1045 &1
EditorBuildSettings:
  m_ObjectHideFlags: 0
  serializedVersion: 2
  m_Scenes:
  - enabled: 1
    path: Assets/Scenes/StartMenu.unity
    guid: 67d4a5f1516994723a8f3918b8e838a3
  - enabled: 1
    path: Assets/Scenes/FightingStageScene.unity
    guid: a57a55a5baa7442d9819001f1abb879e
  - enabled: 1
    path: Assets/Scenes/EndGameScreen.unity
    guid: 14d846b4ffac92b4a90d590c9019853d
  - enabled: 1
    path: Assets/Scenes/Tutorial.unity
    guid: 63efdef6bfb0fbf458829c549640823e
  - enabled: 1
    path: Assets/Scenes/Story/LynIntroScene.unity
    guid: 3a29a717a5226448a9e20dbef61bac3d
  - enabled: 1
    path: Assets/Scenes/Story/ZeroIntroScene.unity
    guid: d49ad6bca8422476a9067e91d35d5376
  - enabled: 1
    path: Assets/Scenes/Story/NintendoDirectReaction.unity
    guid: c86f0f0626e00496c98f5d3ffb201fe7
  m_configObjects: {}
