%YAML 1.1
%TAG !u! tag:unity3d.com,2011:
--- !u!74 &7400000
AnimationClip:
  m_ObjectHideFlags: 0
  m_CorrespondingSourceObject: {fileID: 0}
  m_PrefabInstance: {fileID: 0}
  m_PrefabAsset: {fileID: 0}
  m_Name: final smash miss
  serializedVersion: 6
  m_Legacy: 0
  m_Compressed: 0
  m_UseHighQualityCurve: 1
  m_RotationCurves: []
  m_CompressedRotationCurves: []
  m_EulerCurves: []
  m_PositionCurves: []
  m_ScaleCurves: []
  m_FloatCurves: []
  m_PPtrCurves:
  - curve:
    - time: 0
      value: {fileID: 21300022, guid: 5b07fadd37c5e4373bbb20154911e68b, type: 3}
    - time: 0.071428575
      value: {fileID: 21300012, guid: 5b07fadd37c5e4373bbb20154911e68b, type: 3}
    - time: 0.14285715
      value: {fileID: 21300014, guid: 5b07fadd37c5e4373bbb20154911e68b, type: 3}
    - time: 0.21428572
      value: {fileID: 21300026, guid: 5b07fadd37c5e4373bbb20154911e68b, type: 3}
    - time: 0.42857143
      value: {fileID: 21300032, guid: b87fd6c1ecffb47089e98cce548d9d99, type: 3}
    - time: 0.5
      value: {fileID: 21300034, guid: b87fd6c1ecffb47089e98cce548d9d99, type: 3}
    - time: 0.5714286
      value: {fileID: 21300036, guid: b87fd6c1ecffb47089e98cce548d9d99, type: 3}
    - time: 0.78571427
      value: {fileID: 21300064, guid: b87fd6c1ecffb47089e98cce548d9d99, type: 3}
    - time: 0.85714287
      value: {fileID: 21300066, guid: b87fd6c1ecffb47089e98cce548d9d99, type: 3}
    - time: 0.9285714
      value: {fileID: 21300270, guid: b87fd6c1ecffb47089e98cce548d9d99, type: 3}
    attribute: m_Sprite
    path: 
    classID: 212
    script: {fileID: 0}
  m_SampleRate: 14
  m_WrapMode: 0
  m_Bounds:
    m_Center: {x: 0, y: 0, z: 0}
    m_Extent: {x: 0, y: 0, z: 0}
  m_ClipBindingConstant:
    genericBindings:
    - serializedVersion: 2
      path: 0
      attribute: 0
      script: {fileID: 0}
      typeID: 212
      customType: 23
      isPPtrCurve: 1
    pptrCurveMapping:
    - {fileID: 21300022, guid: 5b07fadd37c5e4373bbb20154911e68b, type: 3}
    - {fileID: 21300012, guid: 5b07fadd37c5e4373bbb20154911e68b, type: 3}
    - {fileID: 21300014, guid: 5b07fadd37c5e4373bbb20154911e68b, type: 3}
    - {fileID: 21300026, guid: 5b07fadd37c5e4373bbb20154911e68b, type: 3}
    - {fileID: 21300032, guid: b87fd6c1ecffb47089e98cce548d9d99, type: 3}
    - {fileID: 21300034, guid: b87fd6c1ecffb47089e98cce548d9d99, type: 3}
    - {fileID: 21300036, guid: b87fd6c1ecffb47089e98cce548d9d99, type: 3}
    - {fileID: 21300064, guid: b87fd6c1ecffb47089e98cce548d9d99, type: 3}
    - {fileID: 21300066, guid: b87fd6c1ecffb47089e98cce548d9d99, type: 3}
    - {fileID: 21300270, guid: b87fd6c1ecffb47089e98cce548d9d99, type: 3}
  m_AnimationClipSettings:
    serializedVersion: 2
    m_AdditiveReferencePoseClip: {fileID: 0}
    m_AdditiveReferencePoseTime: 0
    m_StartTime: 0
    m_StopTime: 1
    m_OrientationOffsetY: 0
    m_Level: 0
    m_CycleOffset: 0
    m_HasAdditiveReferencePose: 0
    m_LoopTime: 0
    m_LoopBlend: 0
    m_LoopBlendOrientation: 0
    m_LoopBlendPositionY: 0
    m_LoopBlendPositionXZ: 0
    m_KeepOriginalOrientation: 0
    m_KeepOriginalPositionY: 1
    m_KeepOriginalPositionXZ: 0
    m_HeightFromFeet: 0
    m_Mirror: 0
  m_EditorCurves: []
  m_EulerEditorCurves: []
  m_HasGenericRootTransform: 0
  m_HasMotionFloatCurves: 0
  m_Events:
  - time: 0.42857143
    functionName: Play
    data: LynSwordIn
    objectReferenceParameter: {fileID: 0}
    floatParameter: 0
    intParameter: 0
    messageOptions: 0
