%YAML 1.1
%TAG !u! tag:unity3d.com,2011:
--- !u!74 &7400000
AnimationClip:
  m_ObjectHideFlags: 0
  m_CorrespondingSourceObject: {fileID: 0}
  m_PrefabInstance: {fileID: 0}
  m_PrefabAsset: {fileID: 0}
  m_Name: final smash 5
  serializedVersion: 6
  m_Legacy: 0
  m_Compressed: 0
  m_UseHighQualityCurve: 1
  m_RotationCurves: []
  m_CompressedRotationCurves: []
  m_EulerCurves: []
  m_PositionCurves: []
  m_ScaleCurves: []
  m_FloatCurves: []
  m_PPtrCurves:
  - curve:
    - time: 0
      value: {fileID: 21300236, guid: b87fd6c1ecffb47089e98cce548d9d99, type: 3}
    - time: 0.05
      value: {fileID: 21300238, guid: b87fd6c1ecffb47089e98cce548d9d99, type: 3}
    - time: 0.1
      value: {fileID: 21300240, guid: b87fd6c1ecffb47089e98cce548d9d99, type: 3}
    - time: 0.15
      value: {fileID: 21300242, guid: b87fd6c1ecffb47089e98cce548d9d99, type: 3}
    - time: 0.2
      value: {fileID: 21300252, guid: b87fd6c1ecffb47089e98cce548d9d99, type: 3}
    - time: 0.25
      value: {fileID: 21300254, guid: b87fd6c1ecffb47089e98cce548d9d99, type: 3}
    - time: 0.3
      value: {fileID: 21300256, guid: b87fd6c1ecffb47089e98cce548d9d99, type: 3}
    - time: 0.35
      value: {fileID: 21300258, guid: b87fd6c1ecffb47089e98cce548d9d99, type: 3}
    - time: 0.4
      value: {fileID: 21300260, guid: b87fd6c1ecffb47089e98cce548d9d99, type: 3}
    - time: 0.45
      value: {fileID: 21300248, guid: b87fd6c1ecffb47089e98cce548d9d99, type: 3}
    - time: 0.5
      value: {fileID: 21300250, guid: b87fd6c1ecffb47089e98cce548d9d99, type: 3}
    - time: 0.75
      value: {fileID: 21300266, guid: b87fd6c1ecffb47089e98cce548d9d99, type: 3}
    - time: 0.8
      value: {fileID: 21300268, guid: b87fd6c1ecffb47089e98cce548d9d99, type: 3}
    - time: 0.85
      value: {fileID: 21300270, guid: b87fd6c1ecffb47089e98cce548d9d99, type: 3}
    attribute: m_Sprite
    path: 
    classID: 212
    script: {fileID: 0}
  m_SampleRate: 20
  m_WrapMode: 0
  m_Bounds:
    m_Center: {x: 0, y: 0, z: 0}
    m_Extent: {x: 0, y: 0, z: 0}
  m_ClipBindingConstant:
    genericBindings:
    - serializedVersion: 2
      path: 0
      attribute: 0
      script: {fileID: 0}
      typeID: 212
      customType: 23
      isPPtrCurve: 1
    pptrCurveMapping:
    - {fileID: 21300236, guid: b87fd6c1ecffb47089e98cce548d9d99, type: 3}
    - {fileID: 21300238, guid: b87fd6c1ecffb47089e98cce548d9d99, type: 3}
    - {fileID: 21300240, guid: b87fd6c1ecffb47089e98cce548d9d99, type: 3}
    - {fileID: 21300242, guid: b87fd6c1ecffb47089e98cce548d9d99, type: 3}
    - {fileID: 21300252, guid: b87fd6c1ecffb47089e98cce548d9d99, type: 3}
    - {fileID: 21300254, guid: b87fd6c1ecffb47089e98cce548d9d99, type: 3}
    - {fileID: 21300256, guid: b87fd6c1ecffb47089e98cce548d9d99, type: 3}
    - {fileID: 21300258, guid: b87fd6c1ecffb47089e98cce548d9d99, type: 3}
    - {fileID: 21300260, guid: b87fd6c1ecffb47089e98cce548d9d99, type: 3}
    - {fileID: 21300248, guid: b87fd6c1ecffb47089e98cce548d9d99, type: 3}
    - {fileID: 21300250, guid: b87fd6c1ecffb47089e98cce548d9d99, type: 3}
    - {fileID: 21300266, guid: b87fd6c1ecffb47089e98cce548d9d99, type: 3}
    - {fileID: 21300268, guid: b87fd6c1ecffb47089e98cce548d9d99, type: 3}
    - {fileID: 21300270, guid: b87fd6c1ecffb47089e98cce548d9d99, type: 3}
  m_AnimationClipSettings:
    serializedVersion: 2
    m_AdditiveReferencePoseClip: {fileID: 0}
    m_AdditiveReferencePoseTime: 0
    m_StartTime: 0
    m_StopTime: 0.90000004
    m_OrientationOffsetY: 0
    m_Level: 0
    m_CycleOffset: 0
    m_HasAdditiveReferencePose: 0
    m_LoopTime: 0
    m_LoopBlend: 0
    m_LoopBlendOrientation: 0
    m_LoopBlendPositionY: 0
    m_LoopBlendPositionXZ: 0
    m_KeepOriginalOrientation: 0
    m_KeepOriginalPositionY: 1
    m_KeepOriginalPositionXZ: 0
    m_HeightFromFeet: 0
    m_Mirror: 0
  m_EditorCurves: []
  m_EulerEditorCurves: []
  m_HasGenericRootTransform: 0
  m_HasMotionFloatCurves: 0
  m_Events:
  - time: 0.45
    functionName: Play
    data: LynLeftStep
    objectReferenceParameter: {fileID: 0}
    floatParameter: 0
    intParameter: 0
    messageOptions: 0
  - time: 0.75
    functionName: Play
    data: LynSwordOut
    objectReferenceParameter: {fileID: 0}
    floatParameter: 0
    intParameter: 0
    messageOptions: 0
