%YAML 1.1
%TAG !u! tag:unity3d.com,2011:
--- !u!74 &7400000
AnimationClip:
  m_ObjectHideFlags: 0
  m_CorrespondingSourceObject: {fileID: 0}
  m_PrefabInstance: {fileID: 0}
  m_PrefabAsset: {fileID: 0}
  m_Name: ketchup
  serializedVersion: 6
  m_Legacy: 0
  m_Compressed: 0
  m_UseHighQualityCurve: 1
  m_RotationCurves: []
  m_CompressedRotationCurves: []
  m_EulerCurves: []
  m_PositionCurves: []
  m_ScaleCurves: []
  m_FloatCurves: []
  m_PPtrCurves:
  - curve:
    - time: 0
      value: {fileID: 21300096, guid: 838c1814a082c4db6903a73af4c83e72, type: 3}
    - time: 0.2
      value: {fileID: 21300102, guid: 838c1814a082c4db6903a73af4c83e72, type: 3}
    - time: 0.4
      value: {fileID: 21300104, guid: 838c1814a082c4db6903a73af4c83e72, type: 3}
    - time: 0.6
      value: {fileID: 21300106, guid: 838c1814a082c4db6903a73af4c83e72, type: 3}
    - time: 0.8
      value: {fileID: 21300108, guid: 838c1814a082c4db6903a73af4c83e72, type: 3}
    - time: 1
      value: {fileID: 21300110, guid: 838c1814a082c4db6903a73af4c83e72, type: 3}
    - time: 1.2
      value: {fileID: 21300112, guid: 838c1814a082c4db6903a73af4c83e72, type: 3}
    - time: 1.4
      value: {fileID: 21300114, guid: 838c1814a082c4db6903a73af4c83e72, type: 3}
    - time: 1.6
      value: {fileID: 21300116, guid: 838c1814a082c4db6903a73af4c83e72, type: 3}
    - time: 1.8
      value: {fileID: 21300118, guid: 838c1814a082c4db6903a73af4c83e72, type: 3}
    - time: 2
      value: {fileID: 21300120, guid: 838c1814a082c4db6903a73af4c83e72, type: 3}
    - time: 2.4
      value: {fileID: 21300120, guid: 838c1814a082c4db6903a73af4c83e72, type: 3}
    attribute: m_Sprite
    path: 
    classID: 212
    script: {fileID: 0}
  m_SampleRate: 5
  m_WrapMode: 0
  m_Bounds:
    m_Center: {x: 0, y: 0, z: 0}
    m_Extent: {x: 0, y: 0, z: 0}
  m_ClipBindingConstant:
    genericBindings:
    - serializedVersion: 2
      path: 0
      attribute: 0
      script: {fileID: 0}
      typeID: 212
      customType: 23
      isPPtrCurve: 1
    pptrCurveMapping:
    - {fileID: 21300096, guid: 838c1814a082c4db6903a73af4c83e72, type: 3}
    - {fileID: 21300102, guid: 838c1814a082c4db6903a73af4c83e72, type: 3}
    - {fileID: 21300104, guid: 838c1814a082c4db6903a73af4c83e72, type: 3}
    - {fileID: 21300106, guid: 838c1814a082c4db6903a73af4c83e72, type: 3}
    - {fileID: 21300108, guid: 838c1814a082c4db6903a73af4c83e72, type: 3}
    - {fileID: 21300110, guid: 838c1814a082c4db6903a73af4c83e72, type: 3}
    - {fileID: 21300112, guid: 838c1814a082c4db6903a73af4c83e72, type: 3}
    - {fileID: 21300114, guid: 838c1814a082c4db6903a73af4c83e72, type: 3}
    - {fileID: 21300116, guid: 838c1814a082c4db6903a73af4c83e72, type: 3}
    - {fileID: 21300118, guid: 838c1814a082c4db6903a73af4c83e72, type: 3}
    - {fileID: 21300120, guid: 838c1814a082c4db6903a73af4c83e72, type: 3}
    - {fileID: 21300120, guid: 838c1814a082c4db6903a73af4c83e72, type: 3}
  m_AnimationClipSettings:
    serializedVersion: 2
    m_AdditiveReferencePoseClip: {fileID: 0}
    m_AdditiveReferencePoseTime: 0
    m_StartTime: 0
    m_StopTime: 2.6000001
    m_OrientationOffsetY: 0
    m_Level: 0
    m_CycleOffset: 0
    m_HasAdditiveReferencePose: 0
    m_LoopTime: 1
    m_LoopBlend: 0
    m_LoopBlendOrientation: 0
    m_LoopBlendPositionY: 0
    m_LoopBlendPositionXZ: 0
    m_KeepOriginalOrientation: 0
    m_KeepOriginalPositionY: 1
    m_KeepOriginalPositionXZ: 0
    m_HeightFromFeet: 0
    m_Mirror: 0
  m_EditorCurves: []
  m_EulerEditorCurves: []
  m_HasGenericRootTransform: 0
  m_HasMotionFloatCurves: 0
  m_Events: []
